…
data <- asteroidData('1994-10-10', '1994-12-10')$data
```

    ## [1] "[WARNING..!!] The difference between the date range should be less than 8 days for this current date range the API will return future Approach date "

``` r
# EDA on Asteroid data

asteroidData <- data

asteroidData
```

    ## # A tibble: 71 x 8
    ##    Magnitude Minimum_Diameter
    ##        <dbl>            <dbl>
    ##  1      20.6           0.125 
    ##  2      22.1           0.0628
    ##  3      21.1           0.0995
    ##  4      24.5           0.0208
    ##  5      21             0.104 
    ##  6      21.2           0.0950
    ##  7      24.2           0.0234
    ##  8      23             0.0415
    ##  9      25.2           0.0148
    ## 10      19.6           0.199 
    ## # ... with 61 more rows, and
    ## #   6 more variables:
    ## #   Maximum_Diameter <dbl>,
    ## #   Relative_Velocity <chr>,
    ## #   Approach_Date <chr>,
    ## #   Miss_Distance <chr>,
    ## #   Orbiting_Body <chr>, ...
…
