…
data <- asteroidData('1994-10-10', '1994-12-10')$data
```

    ## [1] "[WARNING..!!] The difference between the date range should be less than 8 days for this current date range the API will return future Approach date "

``` r
# EDA on Asteroid data

asteroidData <- data

asteroidData
```

    ## # A tibble: 71 × 8
    ##    Magnitude Minimum_Diameter Maximum_…¹ Relat…² Appro…³ Miss_…⁴ Orbit…⁵ Is_Po…⁶
    ##        <dbl>            <dbl>      <dbl> <chr>   <chr>   <chr>   <chr>   <lgl>  
    ##  1      20.6           0.125      0.280  58294.… 2022-1… 0.4274… Earth   TRUE   
    ##  2      22.1           0.0628     0.140  104578… 2022-1… 0.3748… Earth   FALSE  
    ##  3      21.1           0.0995     0.223  85022.… 2022-1… 0.4388… Earth   FALSE  
    ##  4      24.5           0.0208     0.0465 43495.… 2022-1… 0.0157… Earth   FALSE  
    ##  5      21             0.104      0.233  67428.… 2022-1… 0.2604… Earth   TRUE   
    ##  6      21.2           0.0950     0.213  7036.8… 2022-1… 0.2865… Earth   FALSE  
    ##  7      24.2           0.0234     0.0524 68965.… 2022-1… 0.4814… Earth   FALSE  
    ##  8      23             0.0415     0.0928 43343.… 2022-1… 0.1438… Earth   FALSE  
    ##  9      25.2           0.0148     0.0331 31072.… 2022-1… 0.0714… Earth   FALSE  
    ## 10      19.6           0.199      0.444  39910.… 2022-1… 0.2696… Earth   FALSE  
    ## # … with 61 more rows, and abbreviated variable names ¹​Maximum_Diameter,
    ## #   ²​Relative_Velocity, ³​Approach_Date, ⁴​Miss_Distance, ⁵​Orbiting_Body,
    ## #   ⁶​Is_Potentially_Hazardous_Asteroid
…
